IS415-Geo - Take-home_Ex02
…
Computing local Gi* statistics

HCSA2017 <- wm_idw2017 %>% 
  mutate(local_Gi = local_gstar_perm(
    Total, nb, wts, nsim = 99),
         .before = 1) %>%
  unnest(local_Gi)
HCSA2017

Simple feature collection with 75 features and 33 fields
Geometry type: MULTIPOLYGON
Dimension:     XY
Bounding box:  xmin: 97.34336 ymin: 5.613038 xmax: 105.637 ymax: 20.46507
Geodetic CRS:  WGS 84
# A tibble: 75 × 34
   gi_star cluster     e_gi   var_gi std_dev p_value p_sim p_folded_sim skewness
     <dbl> <fct>      <dbl>    <dbl>   <dbl>   <dbl> <dbl>        <dbl>    <dbl>
 1   0.485 High    0.00183   3.07e-7  1.27   2.03e-1  0.3          0.15    0.634
 2   6.82  High    0.000980  9.05e-7  5.42   6.00e-8  0.04         0.02    3.36 
 3   3.48  High    0.00151   6.58e-7  3.45   5.59e-4  0.08         0.04    2.12 
 4   2.86  High    0.00170   8.19e-7  2.43   1.50e-2  0.12         0.06    1.81 
 5  -0.533 Low     0.00162   5.05e-7 -0.416  6.78e-1  0.82         0.41    2.22 
 6  -0.590 Low     0.00117   7.52e-7 -0.493  6.22e-1  0.6          0.3     3.54 
 7  -1.07  Low     0.00118   5.24e-7 -0.956  3.39e-1  0.06         0.03    2.65 
 8  -1.09  Low     0.00100   2.66e-7 -1.15   2.51e-1  0.04         0.02    2.47 
 9  -0.167 Low     0.000770  1.59e-7 -0.0982 9.22e-1  0.88         0.44    2.22 
10   0.736 High    0.000742  3.39e-7  0.581  5.61e-1  0.26         0.13    3.39 
# ℹ 65 more rows
# ℹ 25 more variables: kurtosis <dbl>, nb <nb>, wts <list>, Shape_Leng <dbl>,
#   Shape_Area <dbl>, ADM1_EN <chr>, fiscal_year <dbl>, drug_use_cases <dbl>,
#   suspects_in_drug_use_cases <dbl>, possession_cases <dbl>,
#   suspects_in_possession_cases <dbl>,
#   possession_with_intent_to_distribute_cases <dbl>,
#   suspects_in_possession_with_intent_to_distribute_cases <dbl>, …
2018

HCSA2018 <- wm_idw2018 %>% 
  mutate(local_Gi = local_gstar_perm(
    Total, nb, wts, nsim = 99),
         .before = 1) %>%
  unnest(local_Gi)
HCSA2018

Simple feature collection with 75 features and 33 fields
Geometry type: MULTIPOLYGON
Dimension:     XY
Bounding box:  xmin: 97.34336 ymin: 5.613038 xmax: 105.637 ymax: 20.46507
Geodetic CRS:  WGS 84
# A tibble: 75 × 34
   gi_star cluster     e_gi  var_gi std_dev  p_value p_sim p_folded_sim skewness
     <dbl> <fct>      <dbl>   <dbl>   <dbl>    <dbl> <dbl>        <dbl>    <dbl>
 1  0.706  High    0.00186  3.53e-7   1.42  1.55e- 1  0.24         0.12    0.849
 2  6.71   High    0.000856 4.62e-7   7.08  1.42e-12  0.04         0.02    4.07 
 3  3.59   High    0.00144  5.21e-7   3.80  1.46e- 4  0.04         0.02    2.19 
 4  2.83   High    0.00168  3.69e-7   3.34  8.42e- 4  0.04         0.02    1.11 
 5 -0.413  Low     0.00174  4.88e-7  -0.431 6.67e- 1  0.78         0.39    1.39 
 6 -0.577  Low     0.00119  4.86e-7  -0.594 5.52e- 1  0.6          0.3     2.52 
 7 -1.09   Low     0.00120  4.59e-7  -1.00  3.16e- 1  0.08         0.04    2.51 
 8 -1.15   Low     0.000977 2.54e-7  -1.10  2.71e- 1  0.06         0.03    2.05 
 9  0.0390 Low     0.000776 1.71e-7   0.109 9.13e- 1  0.68         0.34    3.04 
10  0.440  High    0.000770 2.51e-7   0.298 7.66e- 1  0.48         0.24    2.72 
# ℹ 65 more rows
# ℹ 25 more variables: kurtosis <dbl>, nb <nb>, wts <list>, Shape_Leng <dbl>,
#   Shape_Area <dbl>, ADM1_EN <chr>, fiscal_year <dbl>, drug_use_cases <dbl>,
#   suspects_in_drug_use_cases <dbl>, possession_cases <dbl>,
#   suspects_in_possession_cases <dbl>,
#   possession_with_intent_to_distribute_cases <dbl>,
#   suspects_in_possession_with_intent_to_distribute_cases <dbl>, …
2019

HCSA2019 <- wm_idw2019 %>% 
  mutate(local_Gi = local_gstar_perm(
    Total, nb, wts, nsim = 99),
         .before = 1) %>%
  unnest(local_Gi)
HCSA2019

Simple feature collection with 75 features and 33 fields
Geometry type: MULTIPOLYGON
Dimension:     XY
Bounding box:  xmin: 97.34336 ymin: 5.613038 xmax: 105.637 ymax: 20.46507
Geodetic CRS:  WGS 84
# A tibble: 75 × 34
   gi_star cluster     e_gi  var_gi std_dev  p_value p_sim p_folded_sim skewness
     <dbl> <fct>      <dbl>   <dbl>   <dbl>    <dbl> <dbl>        <dbl>    <dbl>
 1   1.23  High    0.00194  3.92e-7   1.80  7.22e- 2  0.12         0.06    0.833
 2   5.89  High    0.000745 2.93e-7   7.21  5.71e-13  0.02         0.01    3.92 
 3   3.31  High    0.00147  2.98e-7   4.13  3.62e- 5  0.02         0.01    0.581
 4   2.56  High    0.00169  5.49e-7   2.21  2.71e- 2  0.1          0.05    1.99 
 5  -0.344 High    0.00177  4.67e-7  -0.379 7.05e- 1  0.84         0.42    0.958
 6  -0.583 Low     0.00106  2.83e-7  -0.465 6.42e- 1  0.76         0.38    2.18 
 7  -1.24  Low     0.00114  2.96e-7  -1.16  2.48e- 1  0.12         0.06    1.73 
 8  -1.27  Low     0.00104  2.23e-7  -1.28  1.99e- 1  0.04         0.02    1.25 
 9   0.391 Low     0.000715 1.19e-7   0.682 4.95e- 1  0.34         0.17    2.12 
10   0.325 High    0.000755 2.24e-7   0.205 8.37e- 1  0.6          0.3     2.79 
# ℹ 65 more rows
# ℹ 25 more variables: kurtosis <dbl>, nb <nb>, wts <list>, Shape_Leng <dbl>,
#   Shape_Area <dbl>, ADM1_EN <chr>, fiscal_year <dbl>, drug_use_cases <dbl>,
#   suspects_in_drug_use_cases <dbl>, possession_cases <dbl>,
#   suspects_in_possession_cases <dbl>,
#   possession_with_intent_to_distribute_cases <dbl>,
#   suspects_in_possession_with_intent_to_distribute_cases <dbl>, …
2020

HCSA2020 <- wm_idw2020 %>% 
  mutate(local_Gi = local_gstar_perm(
    Total, nb, wts, nsim = 99),
         .before = 1) %>%
  unnest(local_Gi)
HCSA2020

Simple feature collection with 75 features and 33 fields
Geometry type: MULTIPOLYGON
Dimension:     XY
Bounding box:  xmin: 97.34336 ymin: 5.613038 xmax: 105.637 ymax: 20.46507
Geodetic CRS:  WGS 84
# A tibble: 75 × 34
   gi_star cluster     e_gi   var_gi std_dev p_value p_sim p_folded_sim skewness
     <dbl> <fct>      <dbl>    <dbl>   <dbl>   <dbl> <dbl>        <dbl>    <dbl>
 1   0.332 High    0.00202   3.97e-7   0.437 6.62e-1  0.54         0.27    0.791
 2   5.08  High    0.000903  4.02e-7   4.54  5.66e-6  0.02         0.01    2.48 
 3   2.48  Low     0.00155   4.20e-7   2.23  2.57e-2  0.1          0.05    1.57 
 4   1.86  High    0.00169   3.39e-7   1.81  6.96e-2  0.1          0.05    1.32 
 5  -0.888 Low     0.00179   3.81e-7  -0.919 3.58e-1  0.22         0.11    1.20 
 6  -0.751 Low     0.00117   3.19e-7  -0.721 4.71e-1  0.38         0.19    2.31 
 7  -1.31  Low     0.00117   2.48e-7  -1.27  2.06e-1  0.08         0.04    1.55 
 8  -1.41  Low     0.000993  1.71e-7  -1.36  1.74e-1  0.04         0.02    1.58 
 9  -0.273 Low     0.000833  1.14e-7  -0.349 7.27e-1  0.84         0.42    1.30 
10   0.778 High    0.000688  9.37e-8   1.03  3.03e-1  0.32         0.16    1.51 
# ℹ 65 more rows
# ℹ 25 more variables: kurtosis <dbl>, nb <nb>, wts <list>, Shape_Leng <dbl>,
#   Shape_Area <dbl>, ADM1_EN <chr>, fiscal_year <dbl>, drug_use_cases <dbl>,
#   suspects_in_drug_use_cases <dbl>, possession_cases <dbl>,
#   suspects_in_possession_cases <dbl>,
#   possession_with_intent_to_distribute_cases <dbl>,
#   suspects_in_possession_with_intent_to_distribute_cases <dbl>, …
2021

HCSA2021 <- wm_idw2021 %>% 
  mutate(local_Gi = local_gstar_perm(
    Total, nb, wts, nsim = 99),
         .before = 1) %>%
  unnest(local_Gi)
HCSA2021

Simple feature collection with 75 features and 33 fields
Geometry type: MULTIPOLYGON
Dimension:     XY
Bounding box:  xmin: 97.34336 ymin: 5.613038 xmax: 105.637 ymax: 20.46507
Geodetic CRS:  WGS 84
# A tibble: 75 × 34
   gi_star cluster     e_gi   var_gi std_dev p_value p_sim p_folded_sim skewness
     <dbl> <fct>      <dbl>    <dbl>   <dbl>   <dbl> <dbl>        <dbl>    <dbl>
 1  -0.398 High    0.00207   5.16e-7  -0.405 0.685    0.7          0.35    0.735
 2   3.17  High    0.000974  3.39e-7   2.68  0.00741  0.08         0.04    1.25 
 3   0.901 Low     0.00144   3.16e-7   1.01  0.314    0.4          0.2     0.823
 4   0.881 Low     0.00156   2.71e-7   1.13  0.260    0.3          0.15    0.771
 5  -1.31  Low     0.00173   3.10e-7  -1.23  0.218    0.2          0.1     0.976
 6  -1.19  Low     0.00122   2.53e-7  -1.27  0.204    0.14         0.07    0.896
 7  -1.63  Low     0.00121   2.04e-7  -1.67  0.0945   0.04         0.02    0.561
 8  -1.73  Low     0.000971  1.43e-7  -1.63  0.103    0.02         0.01    1.12 
 9  -0.345 Low     0.000816  9.02e-8  -0.385 0.700    0.88         0.44    0.493
10   0.369 High    0.000693  1.06e-7   0.464 0.643    0.5          0.25    1.24 
# ℹ 65 more rows
# ℹ 25 more variables: kurtosis <dbl>, nb <nb>, wts <list>, Shape_Leng <dbl>,
#   Shape_Area <dbl>, ADM1_EN <chr>, fiscal_year <dbl>, drug_use_cases <dbl>,
#   suspects_in_drug_use_cases <dbl>, possession_cases <dbl>,
#   suspects_in_possession_cases <dbl>,
#   possession_with_intent_to_distribute_cases <dbl>,
#   suspects_in_possession_with_intent_to_distribute_cases <dbl>, …
2022

HCSA2022 <- wm_idw2022 %>% 
  mutate(local_Gi = local_gstar_perm(
    Total, nb, wts, nsim = 99),
         .before = 1) %>%
  unnest(local_Gi)
HCSA2022

Simple feature collection with 75 features and 33 fields
Geometry type: MULTIPOLYGON
Dimension:     XY
Bounding box:  xmin: 97.34336 ymin: 5.613038 xmax: 105.637 ymax: 20.46507
Geodetic CRS:  WGS 84
# A tibble: 75 × 34
   gi_star cluster     e_gi   var_gi std_dev p_value p_sim p_folded_sim skewness
     <dbl> <fct>      <dbl>    <dbl>   <dbl>   <dbl> <dbl>        <dbl>    <dbl>
 1 -0.417  High    0.00204   3.82e-7  -0.367  0.713   0.88         0.44    0.332
 2  1.63   High    0.000863  1.97e-7   1.63   0.104   0.22         0.11    0.863
 3  0.720  Low     0.00142   1.88e-7   0.965  0.334   0.36         0.18    0.243
 4 -0.186  Low     0.00170   2.46e-7  -0.214  0.831   0.98         0.49    0.642
 5 -1.03   Low     0.00178   1.81e-7  -1.17   0.242   0.3          0.15    0.217
 6 -0.970  Low     0.00122   1.51e-7  -1.18   0.236   0.22         0.11    0.599
 7 -1.37   Low     0.00120   1.27e-7  -1.51   0.131   0.12         0.06    0.396
 8 -1.62   Low     0.00103   8.79e-8  -1.81   0.0705  0.06         0.03    0.467
 9 -0.293  Low     0.000803  6.95e-8  -0.277  0.782   0.88         0.44    0.531
10  0.0398 High    0.000696  8.91e-8   0.119  0.906   0.72         0.36    0.886
# ℹ 65 more rows
# ℹ 25 more variables: kurtosis <dbl>, nb <nb>, wts <list>, Shape_Leng <dbl>,
#   Shape_Area <dbl>, ADM1_EN <chr>, fiscal_year <dbl>, drug_use_cases <dbl>,
#   suspects_in_drug_use_cases <dbl>, possession_cases <dbl>,
#   suspects_in_possession_cases <dbl>,
#   possession_with_intent_to_distribute_cases <dbl>,
#   suspects_in_possession_with_intent_to_distribute_cases <dbl>, …
…
