IS415-Geo - Take-home_Ex03
…
# 按省份和年份分组并统计案例数量
summary_data <- drug_case %>%
  group_by(admin2, year) %>%
  summarise(total_cases = n(), .groups = "drop") # 统计每组的行数

# 查看结果
print(summary_data)

Simple feature collection with 435 features and 3 fields
Geometry type: GEOMETRY
Dimension:     XY
Bounding box:  xmin: -128531.7 ymin: 518340.4 xmax: 864960.5 ymax: 2055587
Projected CRS: WGS 84 / UTM zone 51N
# A tibble: 435 × 4
   admin2            year total_cases                                   geometry
   <chr>            <dbl>       <int>                             <GEOMETRY [m]>
 1 Abra              2016           6 MULTIPOINT ((243552.1 1949406), (247247.5…
 2 Abra              2017           2 MULTIPOINT ((246789.8 1947649), (259088.9…
 3 Abra              2019           1                   POINT (248189.3 1945782)
 4 Abra              2020           1                   POINT (249952.6 1952636)
 5 Abra              2024           2 MULTIPOINT ((246603.5 1948039), (248189.3…
 6 Agusan del Norte  2016          17 MULTIPOINT ((754728.1 990125.8), (757148.…
 7 Agusan del Norte  2017           1                  POINT (779704.2 990191.1)
 8 Agusan del Norte  2021           1                  POINT (779704.2 990191.1)
 9 Agusan del Norte  2022           2                  POINT (779704.2 990191.1)
10 Agusan del Norte  2024           1                  POINT (779704.2 990191.1)
# ℹ 425 more rows
…
drug_Manila_2016 = drug_case_2016 %>% filter(str_detect(admin2, "^Metropolitan Manila"))

Converting sf data frames to sp’s Spatial* class

drug_Manila_2016_sf <- as_Spatial(drug_Manila_2016)

drug_Manila_2016

Simple feature collection with 783 features and 32 fields
Geometry type: POINT
Dimension:     XY
Bounding box:  xmin: 279767.7 ymin: 1593737 xmax: 296805.5 ymax: 1623566
Projected CRS: WGS 84 / UTM zone 51N
# A tibble: 783 × 33
   event_id_cnty event_date  year time_precision disorder_type      event_type  
 * <chr>         <date>     <dbl>          <dbl> <chr>              <chr>       
 1 PHL6636       2016-12-30  2016              1 Political violence Violence ag…
 2 PHL6635       2016-12-29  2016              1 Political violence Violence ag…
 3 PHL6634       2016-12-28  2016              1 Political violence Violence ag…
 4 PHL2095       2016-12-28  2016              1 Political violence Violence ag…
 5 PHL2089       2016-12-27  2016              1 Political violence Violence ag…
 6 PHL6631       2016-12-26  2016              1 Political violence Violence ag…
 7 PHL2085       2016-12-26  2016              1 Political violence Violence ag…
 8 PHL6628       2016-12-22  2016              1 Political violence Violence ag…
 9 PHL6627       2016-12-22  2016              1 Political violence Violence ag…
10 PHL2068       2016-12-21  2016              1 Political violence Violence ag…
# ℹ 773 more rows
# ℹ 27 more variables: sub_event_type <chr>, actor1 <chr>, assoc_actor_1 <chr>,
#   inter1 <chr>, actor2 <chr>, assoc_actor_2 <chr>, inter2 <chr>,
#   interaction <chr>, civilian_targeting <chr>, iso <dbl>, region <chr>,
#   country <chr>, admin1 <chr>, admin2 <chr>, admin3 <chr>, location <chr>,
#   geo_precision <dbl>, source <chr>, source_scale <chr>, notes <chr>,
#   fatalities <dbl>, tags <chr>, timestamp <dbl>, geometry <POINT [m]>, …
…
